%YAML 1.1
%TAG !u! tag:unity3d.com,2011:
--- !u!114 &11400000
MonoBehaviour:
  m_ObjectHideFlags: 0
  m_CorrespondingSourceObject: {fileID: 0}
  m_PrefabInstance: {fileID: 0}
  m_PrefabAsset: {fileID: 0}
  m_GameObject: {fileID: 0}
  m_Enabled: 1
  m_EditorHideFlags: 0
  m_Script: {fileID: 11500000, guid: 7d7092aabf2994448aa4bdec8a704ac5, type: 3}
  m_Name: Shooter
  m_EditorClassIdentifier: 
  Name: Shooter
  Nickname: Gunman
  Description: 
  Coin: {fileID: 0}
  DeathSequence: 0
  Damage: 10
  Health: 10
  HitForce: 0
  ShootingRange: 15
  Range: 80
  Looks: 1
  Moves: 1
  WandersWhenNoPlayer: 0
  DropsCoins: 0
  minCoins: 0
  maxCoins: 0
  MovementSpeed: 0.06
  WanderingSpeed: 0
  EnemyAttackType: 2
