%YAML 1.1
%TAG !u! tag:unity3d.com,2011:
--- !u!114 &11400000
MonoBehaviour:
  m_ObjectHideFlags: 0
  m_CorrespondingSourceObject: {fileID: 0}
  m_PrefabInstance: {fileID: 0}
  m_PrefabAsset: {fileID: 0}
  m_GameObject: {fileID: 0}
  m_Enabled: 1
  m_EditorHideFlags: 0
  m_Script: {fileID: 11500000, guid: 7d7092aabf2994448aa4bdec8a704ac5, type: 3}
  m_Name: Walker
  m_EditorClassIdentifier: 
  Name: Walker
  Nickname: Zombie
  Description: A low level medium damage target that doesn't look like much on its
    own, but pair him with his friends the Gunmen and prepare for trouble.
  Coin: {fileID: 5530440073571862873, guid: ced4d86d9cb8d824d84167a527dad30b, type: 3}
  DeathSequence: 0
  Damage: 25
  Health: -40
  HitForce: 1000
  ShootingRange: 0
  Range: 60
  Looks: 1
  Moves: 1
  WandersWhenNoPlayer: 0
  DropsCoins: 1
  minCoins: 0
  maxCoins: 20
  MovementSpeed: 0.1
  WanderingSpeed: 0
  EnemyAttackType: 1
